digraph block_cache {
    rankdir = LR;
    ranksep = 2.5;

    dpi = 300;
    fontsize = 24;

    node [shape = record, width = 2.2];

    subgraph cluster_virt_memory {
        label = "Виртуальная память\nT*, uintptr_t";
        labelloc = "t";

        virt [label = "{{страница_N\l | ...\l | ...\l | ...\l | страница_k\l | ...\l | ...\l | ...\l | страница_2\l | страница_1\l | страница_0\l} | { | | | | <pk> Present = 1, Write = 0, User = 1\l | | | | <p2> Present = 1, Write = 1, User = 0\l | <p1> Present = 1, Write = 1, User = 0\l | <p0> Present = 0\l}}"];
    }

    subgraph cluster_phys_memory {
        label = "Физическая память\nphysaddr_t";
        labelloc = "t";

        phys [label = " фрейм_M | ... | <fm>... | ... | <f0> фрейм_0 | <f1> фрейм_1 | <f2> фрейм_2 | <f3> фрейм_3"];
    }

    edge [arrowhead = vee];

    virt:p1 -> phys:fm [constraint = false];
    virt:p2 -> phys:f1 [constraint = false, taillabel = "    запись, ядро    "];
    virt:pk -> phys:f1 [constraint = false, taillabel = "    чтение, пользователь    "];

    virt:p0 -> phys:f0 [style = invis];
}
